Sl No|Name|Address|City|Pin Code|Google Map Location|Website|E-Mail ID|Phone Number||Budget Range|citation|FB Page URL [if applicable]|User Rating
||||||||Primary|Secondary (Optional)||||
1|Just bake|Just Bake, A Unit of M/s. BINDU RECIPES PVT. LTD, Survey No 29, Tirumenahalli Village, Hegde Nagar, elahanka Hobli, Bangalore : 560 064|Bangalore|560 064|https://www.google.co.in/maps/place/Just+Bake/@12.970126,77.610405,17z/data=!3m1!4b1!4m2!3m1!1s0x3bae1680450c0c77:0x9baaa2c193287c23|Www.justbake.in|orders@justbake.in|8970010111|8970010222|750||https://www.facebook.com/JustBakeIndia|4
2|Cupcake Noggins|MUSEUM ROAD, No:13 (Front gate of “The Only Place”), Near Raheja Chambers, Museum Road dead end on St.Josephs side, Bengaluru, India|Bangalore|560001|https://www.google.co.in/maps/place/Cupcake+Noggins/@12.973022,77.603397,17z/data=!3m1!4b1!4m2!3m1!1s0x3bae167ea1bf51dd:0xe031a058858f1b87|http://cupcakenoggins.com|orders@cupcakenoggins.com|080 41662485||750||https://www.facebook.com/cupcakenoggins|4
3|Patisserie Nitash|Hutchins Rd, Cooke Town# 298, 100 Ft Road, Indira Nagar, Next To Toit Brew Pub, Bengaluru, Karnataka|Bangalore|560084|https://www.google.co.in/maps/place/Patisserie+Nitash/@13.0035412,77.6225705,14z/data=!3m1!5s0x3bae11e51e8e211f:0x50b657b8a39054f5!4m5!1m2!2m1!1spattesierie+nitash+Hutchins+Rd,+Cooke+Town%23+298,+100+Ft+Road,+Indira+Nagar,!3m1!1s0x3bae16e5bcb32555:0x299fb3b0a50bf7e6|http://www.nitash.in/||98454 27364||750||https://www.facebook.com/pages/Patisserie-Nitash/141251419239757|3.5
4|The Cupcake Company|# 298, 100 Ft Road, Indira Nagar, Next To Toit Brew Pub, Bengaluru, Karnataka|Bangalore|560038|https://www.google.co.in/maps/dir/The+Cupcake+Company,+%23+298,+100+Ft+Road,+Indira+Nagar,+Next+To+Toit+Brew+Pub,+Bengaluru,+Karnataka+560038/Toit+Brewpub,+298,+100+Feet+Road,+Near+KFC+Restaurant,+Indira+Nagar+II+Stage,+Bangalore,+Karnataka+560038/@12.9793495,77.6385237,17z/data=!3m1!4b1!4m13!4m12!1m5!1m1!1s0x3bae16a53f7835b3:0xb0cfe94dfbdfe953!2m2!1d77.640686!2d12.979483!1m5!1m1!1s0x3bae16a515404273:0x5a60fbf524977445!2m2!1d77.640591!2d12.979234||company.cupcake@gmail.com /|99 00 515355||||https://www.facebook.com/company.cupcake|5
5|Au bon Pain|HCG Hospital, HCG Towers, No. 8, Sampangirama Nagar, Kalinga Rao Rd, Sampangi Rama Nagar, Bengaluru, Karnataka|Bangalore|560027|https://www.google.co.in/maps/place/Au+Bon+Pain/@12.963983,77.589467,17z/data=!3m1!4b1!4m2!3m1!1s0x3bae15dedf25203d:0xab9ad109289139a0|http://aubonpain.com|catering@aubonpain.com.|18007654227||||https://www.facebook.com/aubonpain|4
6|Cakes All the Way by Debyanjali|"J.S. Harmony Apartments,3rd Main Hoyasala Nagar,Ramamurthy Nagar
Bangalore
Karnataka"|Bangalore|560016|https://www.google.co.in/maps/place/JS+Harmony+Apartment,+676,+3rd+Main+Rd,+M+Vishveshvaraiah+Nagar,+Hormavu,+Bengaluru,+Karnataka+560016/@13.0201695,77.6666088,17z/data=!3m1!4b1!4m2!3m1!1s0x3bae10d9950d53f1:0xb14b6cce5be37865|http://www.cakesalltheway.com/|debyanjali@gmail.com|9916127933||750||https://www.facebook.com/pages/Cakes-All-The-Way-by-Debyanjali/221686207961084|5
7|Miras Dial a Cake|# 8&9, 24/7, 80 ft Road, BSK 6th Stage, Kanakpura Road, Bangalore|Bangalore|560062|https://www.google.co.in/maps/place/Miras+Dial+A+Cake/@12.880537,77.543724,17z/data=!3m1!4b1!4m2!3m1!1s0x3bae6a6be676d269:0xa74d0ffab5da987a|http://www.dial-a-cake.com/|order@dial-a-cake.com|99800 17921|99008 78605|1200||http://www.facebook.com/mirasdialacake|4
8|Butter side up cafe|1st Floor, HMR Complex, Bellandur Cross Road, Bellandur, Bangalore, India|Bangalore|560103|https://www.bing.com/maps/default.aspx?v=2&pc=FACEBK&mid=8100&rtp=adr.~pos.12.921394604409_77.675894183323_butter+side+up_1st+Floor%2C+HMR+Complex%2C+Bellandur+Cross+Road%2C+Bellandur%2C+Bangalore%2C+India&cp=12.921394604409~77.675894183323&lvl=16&sty=r&rtop=0~0~0~&mode=D&FORM=FBKPL1&mkt=en-US#Y3A9MTIuOTIxMzk1fjc3LjY3NTg5NCZsdmw9MTYmc3R5PXImcnRwPWFkci5+YWRyLmJ1dHRlciUyMHNpZGUlMjB1cCUyMDFzdCUyMEZsb29yJTJDJTIwSE1SJTIwQ29tcGxleCUyQyUyMEJlbGxhbmR1ciUyMENyb3NzJTIwUm9hZCUyQyUyMEJlbGxhbmR1ciUyQyUyMEJhbmdhbG9yZSUyQyUyMEluZGlhJm1vZGU9RCZydG9wPTB+MH4wfg==||buttersideup.bsu@gmail.com|9008744558|9686600092|||https://www.facebook.com/buttersideupcafe|5
9|P&P Cakes||Bangalore|||http://www.pandpcakes.com|pnpcakes@gmail.com|96638 64336||||https://www.facebook.com/pages/Cake-factory/192159174210152?ref=hl|4
10|Chef Bakes|"98/98 2nd Main 3rd Cross
S.R.Layout, Doddanekkundi
Bangalore"|Bangalore|560037||http://chefbakers.com/|info@chefbakers.com|080 3240 2347||400|||4
11|Cake Walk|437, 8th Main,Koramangala, Bangalore|Bangalore|560034|https://www.google.co.in/maps/place/CakeWalk/@12.93356,77.626804,17z/data=!3m1!4b1!4m2!3m1!1s0x3bae145cc2277f8d:0x631622ea9b431b7|http://www.cakewalk.co.in/||080 41463329||650|||3.5
12|Cakewala|33, 26th Main, 36th Cross, Near SSMRV College, 4th T Block, Jayanagar, Bangalore|Bangalore|560041|https://www.google.co.in/maps/place/Cake+Wala/@12.922948,77.593284,17z/data=!3m1!4b1!4m2!3m1!1s0x3bae15a775d42e1b:0x7fbb5e65f6bc9ea7|http://www.cakewala.in/||080 22459999||400|||4
13|The Pouff - Gourmet Bakery|1st Floor, 1 MG Mall, Trinity Circle, 1/2 Swami Vivekananda Road, Opposite Vivanta By Taj, MG Road, Bangalore|Bangalore||https://www.google.co.in/maps/search/1MG+Road+Mall+Trinity+circle+1%2F2+Swami+Vivekananda+Road,+Bengaluru,+Karnataka+560008/@12.9734405,77.6208805,17z/data=!3m2!4b1!5s0x3bae169ca4bae32b:0xb825fcec7e76bb19|||9880706729||650||https://www.facebook.com/ThePouff|4.5
14|Happy Endings|79/3, Chowdeshwari Arcade, Outer Ring Road, Bellandur, Bangalore|Bangalore|560103 ‎|https://maps.google.co.in/maps?sll=12.922948,77.593284&sspn=0.0080311,0.0109864&cid=9204054055486004903&q=Cake+Wala&output=classic&dg=ntvb|http://www.happyendings.co.in/||080 65467001||280|||4
15|Bengaluru Baking Company|JW Marriott Bengaluru, 24/1, Vittal Mallya Road, Lavelle Road, Bangalore|Bangalore|560001|https://www.google.co.in/maps/preview?q=JW+Marriott+Bengaluru,+24/1,+Vittal+Mallya+Road,+Lavelle+Road,+Bangalore&ie=UTF-8&ei=ZgYwVN3EDZT-ugT12YGQAg&ved=0CAgQ_AUoAQ|||8067188511|||||4
