Sl No|Name|Address|City|Pin Code|Google Map Location|Website|E-Mail ID|Phone Number||Budget Range|Citation|FB Page URL [if applicable]|User Rating
||||||||Primary|Secondary (Optional)||||
1|C.krishnaiah  Chetty &Sons|3A, The Touchstone, Main Guard Cross Road, Off Cubbon Road.|Bangalore|560001|https://www.google.co.in/maps/place/C.+Krishniah+Chetty+%26+Sons/@12.9539974,77.6309395,11z/data=!4m5!1m2!2m1!1sjewellery+near+Bangalore,+Karnataka!3m1!1s0x3bae1662ad79a481:0x79250d2589b6176d|ckcsons.com||080 4000 1869|||||3
2|Bhima Jewellers|Jyoti Nivas College Rd, Koramangala Industrial Layout, Koramangala Layout.|Bangalore|560095|https://www.google.co.in/maps/place/Bhima+Jewellers/@12.9539974,77.6309395,11z/data=!4m5!1m2!2m1!1sjewellers+in+bangalore!3m1!1s0x3bae14518c74885f:0xe36718ea0831df2a|bhimacharms.com||080 2553 7762|||||3.5
3|Bhima Jewellers|122/C, Near-President Hotel, 8th Main Rd, Jayanagar 3rd Block, Jayanagar.|Bangalore|560011|https://www.google.co.in/maps/place/Bhima+Jewellers/@12.9539974,77.6309395,11z/data=!4m5!1m2!2m1!1sjewellers+in+bangalore!3m1!1s0x3bae1595b80f7813:0x12e2284d199184f8|bhimajewellers.com||080 4130 1761|||||3.5
4|Abaran Jewellers|No.192, West of chord Road, Mahalakshmi Layout, Opposite ISKCON.|Bangalore|560086|https://www.google.co.in/maps/place/Abaran+Jewellers/@12.9539974,77.6309395,11z/data=!4m5!1m2!2m1!1sjewellers+in+bangalore!3m1!1s0x3bae3d9dd0bc0001:0x3131683f2f0a0fd6|abaran.in||080 2359 8600|||||4
5|Ganjam By Design|Building No. 63, Palace Road, Vasanth Nagar.|Bangalore|560052|https://www.google.co.in/maps/place/Ganjam+By+Design/@12.9539974,77.6309395,11z/data=!4m5!1m2!2m1!1sjewellers+in+bangalore!3m1!1s0x3bae160d56366eb7:0xfc5d0c146b9a8c96|ganjam.com||080 2228 6135|||||3.5
6|Khazana Jewellery|383/72, 11th Main, 3rd Block, 11 Main Rd, Jayanagar.|Bangalore|560011|https://www.google.co.in/maps/place/Khazana+Jewellery/@12.9539974,77.6309395,11z/data=!4m5!1m2!2m1!1sjewellers+in+bangalore!3m1!1s0x3bae15a293d0cec9:0x769d42cd215a5fd2|khazanajewellery.com||080 4116 9903|||||4
7|Jos Alukkas| 81, Dickenson Rd, FM Cariappa Colony, Sivanchetti Gardens.|Bangalore|560001|https://www.google.co.in/maps/place/Jos+Alukkas/@12.9539974,77.6309395,11z/data=!4m5!1m2!2m1!1sjewellers+in+bangalore!3m1!1s0x3bae167e3ad946d5:0x9ddf43c01830d57a|josalukkasonline.com||080 2555 2281|||||4.5
8|P C Chandra Jewellers|46, Dickenson Rd, FM Cariappa Colony, Sivanchetti Gardens.|Bangalore|560042|https://www.google.co.in/maps/place/P+C+Chandra+Jewellers-BANGALORE/@12.9539974,77.6309395,11z/data=!4m5!1m2!2m1!1sjewellers+in+bangalore!3m1!1s0x3bae1684460033f5:0xff7c8be3056e30e|pcchandra.com||080 4934 4444|||||3.5
9|Manappuram Riti Jewellery|No. 5, Ground Floor, Venkataswamy Naidu Road, Shivaji Nagar, Opposite Dandu Mariamman Temple.|Bangalore|560001|https://www.google.co.in/maps/place/Manappuram+Riti+Jewellery/@12.9539974,77.6309395,11z/data=!4m5!1m2!2m1!1sjewellers+in+bangalore!3m1!1s0x3bae16641ad36481:0x8d2b745732e1d03c|http://manappuramjewellery.com||080 3255 9700|||||3
10|GRT Jewellers|11th Main Rd, Pattabhirama Nagar, Jayanagar|Bangalore|560041|https://www.google.co.in/maps/place/GRT+Jewellers/@12.9539974,77.6309395,11z/data=!4m5!1m2!2m1!1sjewellers+in+bangalore!3m1!1s0x3bae15a1ef9cd391:0x2e0f780892c253f1|grtjewels.com||080 2665 1515|||||3.5
11|Ethnic Jewellery Bangalore|# 15, 2nd CrossPrakruthi Town Ship Babusapalaya|Bangalore|560043|https://www.google.co.in/maps/place/ethnic+jewellery+bangalore/@13.024398,77.64744,17z/data=!3m1!4b1!4m2!3m1!1s0x3bae172e713fdcfb:0xa3ca5226bf8385b0|egoclash.com||099 00 566108|||||4
12|Dev's Jewellery|Sri Garuda Swagath30 Cross Byrasandra Jayanagar|Bangalore|560011|https://www.google.co.in/maps/place/Dev%27s+Jewellery+%28inside+%22Sri+Garuda+Swagath+Mall%22,+Jayanagar%29/@13.0245455,77.6098235,15z/data=!3m1!5s0x3bae16775926e6c1:0x5ce03bb2d053ea65!4m9!1m6!2m5!1sjewellers+in+bangalore!3m3!1sjewellers+in+bangalore!2sethnic+jewellery+bangalore,+%23+15,+2nd+Cross,+Prakruthi+Town+Ship+Babusapalaya,+Bengaluru,+Karnataka+560043!3s0x3bae172e713fdcfb:0xa3ca5226bf8385b0!3m1!1s0x3bae16805b24157b:0xa9a21151fdba27be|www.devsjewellery.com||080 2244 7669|||||3
13|Tanishq|1/39, 22nd Cross, 11th Main, 3rd Block Jayanagar East, Near Cosmopolitan club|Bangalore|560011|https://www.google.co.in/maps/place/Tanishq/@12.9345183,77.5890071,17z/data=!4m5!1m2!2m1!1sjewellery+in+East+Byrasandra+Main+Road,+1st+Block,+Hombegowda+Nagar,+Bangalore,+Karnataka!3m1!1s0x3bae15994c706e21:0x8a59a32b786fa124|tanishq.co.in||080 4048 8966|||||3.5
14|Joy Alukkas|MG Road, Near Anil Kumble Circle,shanthala Nagar,Ashok Nagar.|Bangalore|560001|https://www.google.co.in/maps/place/Joyalukkas/@12.976108,77.602995,17z/data=!3m1!4b1!4m2!3m1!1s0x3bae167c89d07ec9:0x80977c0374cd1c5c|joyalukkasindia.com||080 2558 9916|||||4
15|Malabar Gold|No 13, Dickenson Road, Near-Anand Sweets, Shivaji Nagar|Bangalore|560042|https://www.google.co.in/maps/place/Malabar+Gold/@12.980749,77.612084,17z/data=!3m1!4b1!4m2!3m1!1s0x3bae1688ed558a55:0x212a26527c8848f9|www.malabargoldanddiamonds.com||080 4128 3916|||||3.5
16|Gili World|Shop no.211, Second Floor, Garuda Mall Magrath Rd,Ashok Nagar|Bangalore|560025|https://www.google.co.in/maps/place/Gili+World/@12.9539974,77.6309395,11z/data=!3m1!5s0x3bae168044f3b1e7:0x4d6cadcaf1dc4aa5!4m5!1m2!2m1!1sgili+Diamonds,+Bangalore,+Karnataka!3m1!1s0x3bae16805b24157b:0x216919d518fb0d1f|gili.com||080 66 641190|||||3.5
17|Gili Jewels|Varthur Rd, Anand Nagar, Marathahalli|Bangalore|560037|https://www.google.co.in/maps/place/Gili+Jewels/@12.9539974,77.6309395,11z/data=!3m1!5s0x3bae168044f3b1e7:0x4d6cadcaf1dc4aa5!4m5!1m2!2m1!1sgili+Diamonds,+Bangalore,+Karnataka!3m1!1s0x3bae1233a09aebd5:0xe7844f9b2c9213de|gili.com||080 4113 5655|||||4
18|Gili|22, Upper Ground floor, Phoenix Marketcity krishnaraja Pura.|Bangalore|560010|https://www.google.co.in/maps/place/Gili/@12.9539974,77.6309395,11z/data=!3m1!5s0x3bae168044f3b1e7:0x4d6cadcaf1dc4aa5!4m5!1m2!2m1!1sgili+Diamonds,+Bangalore,+Karnataka!3m1!1s0x3bae110aff466789:0x2512a8d543957b5e|gili.com||080 67 266227|||||4
19|Gili World|Shop No.S 77, 2ND Floor, Mantri Square Mall,sampige Rd,Jai Bheema Nagar,Sevashrama|Bangalore||https://www.google.co.in/maps/place/Gili+World/@12.9539974,77.6309395,11z/data=!3m1!5s0x3bae168044f3b1e7:0x4d6cadcaf1dc4aa5!4m5!1m2!2m1!1sgilli+Diamonds,+Bangalore,+Karnataka!3m1!1s0x3bae1623022d9c5b:0xb6594429433083b|gili.com|||||||4
20|NAVRATHAN JEWELLERS|MG Rd, FM Cariappa Colony, Shivaji Nagar|Bangalore|560001|https://www.google.co.in/maps/place/NAVRATHAN+JEWELLERS/@12.9539974,77.6309395,11z/data=!4m5!1m2!2m1!1snavrathan+jewellers!3m1!1s0x3bae16873fa54e2d:0xc74f6b3e042835a9|navrathan.com||080 2558 4346|||||3.5
21|Navrathan Jewellers|No. 6,33rd  Cross Rd,4th Block,Jayanagar|Bangalore|560011|https://www.google.co.in/maps/place/Navrathan+Jewellers/@12.9539974,77.6309395,11z/data=!4m5!1m2!2m1!1snavrathan+jewellers!3m1!1s0x3bae159f3ff7e6c1:0x9e39a5d63fca229b|navrathan.com||080 4942 5550|||||3
22|Manjunatha Jewellers|No. 375, 9th Cross sampige Rd,Vyalikavl,Malleshwaram|Bangalore|560003|https://www.google.co.in/maps/place/Manjunatha+Jewellers/@12.975642,77.604732,14z/data=!4m5!1m2!2m1!1sManjunatha+jewellers!3m1!1s0x3bae1624e3749c19:0x9b8145884c2f3406|manjunathajewellers.com||080 2336 7826|||||3.5
23|Sri Manjunatha Jewellery Works|44/22 ,12th cross Rd,Chinnayanpalya,Wilson Garden|Bangalore|560030|https://www.google.co.in/maps/place/Sri+Manjunatha+Jewellery+Works/@12.975642,77.604732,14z/data=!4m5!1m2!2m1!1sManjunatha+jewellers!3m1!1s0x3bae15c8e3508717:0x1bc5507e86f4ea54|||080 2222 0668|||||4
24|Sri Manjunatha Jewellers|1st Main Rd, Prashanth Nagar, T Dasarahalli|Bangalore||https://www.google.co.in/maps/place/Sri+Manjunatha+jewellers/@13.047411,77.514248,17z/data=!3m1!4b1!4m2!3m1!1s0x3bae3cd672013a87:0x40d9eaa80393049b|||080 2579 1553|||||3.5
