1|City Flowers|Dharmodhayam building,Palace Road|Thrissur|680020|https://www.google.co.in/maps/place/City+Flowers/@10.527737,76.218089,17z/data=!3m1!4b1!4m2!3m1!1s0x3ba7ee4e105bc7b5:0xd025d037cb8c10ba|www.cityflowers.in|santhoshkuruvath@gmail.com|487 2322 811|487 6411 987||The City Flower is the one-stop resource for all your floral needs.We make a conscious effort to ensure that you find all that you need on flowers right here on City Flower.||4
2|Dream florists and Decorators|Opposite St.Sabsatain Church,Nellikunnu|Thrissur|680005|https://www.google.co.in/maps/place/Kerala+Wedding+Directory/@9.970794,76.28948,17z/data=!3m1!4b1!4m2!3m1!1s0x3b0872b4623de7d7:0xe48763018d1280c0|http://www.getit.in/c/dreamsfloristsanddecorators1/||91-0487-3255760|9387100699||With years of experience in this domain, we have carved a niche in the market being the leading decorators and florists in the market.||4
3|La OrchiPolis|Thejas Nagar, TUPS Rd, Pazhaveedu|Alapuzha|688009|https://www.google.com/maps/place/La+OrchiPolis/@9.483028,76.345778,17z/data=!3m1!4b1!4m2!3m1!1s0x3b088493d3f963c1:0xf73ee705db61efd?hl=en|https://plus.google.com/111582655457973175520/about?gl=in&hl=en||99 61 257933|||||3
4|Pradeep Flower Merchant|Panavel-Kanyakumari Hwy|Kollam|691001|https://www.google.com/maps/place/Pradeep+Flower+Merchant/data=!4m2!3m1!1s0x3b05fc5a85b0001b:0xb4f1f5af05f145fa?gl=IN&hl=en|https://plus.google.com/103258988298674498069/about?gl=in&hl=en||9387301668|0474 2763204||||4
5|Jenny flowers|Aingoth, P.O Padanakkad, Kanhangad|Kasargod|671315|https://www.google.co.in/maps/search/Manjoor+south+P.O+Neendoor+Kottayam/@9.6820258,76.5058708,14z/data=!3m1!4b1|jennyflowers_kerala@jennyflowers.com|jennyflowers_kerala@jennyflowers.com|0467-2217788|919496004674||||4
6|Jenny Flowers|Manjoor south, P.O Neendoor, Kottayam|Kottayam||https://www.google.co.in/maps/place/Manjoor+-+South+Neendoor+Rd,+Onamthuruth,+Kerala+686601/@9.6984976,76.5059674,17z/data=!3m1!4b1!4m2!3m1!1s0x3b07d44aa2990c55:0x7a7bf448123425a9|http://www.jennyflowers.com/Contactus.asp||0481-2711950|919496004690||||4
7|Ganesh Flower Stall|Bank Rd, Tazhekkod Kozhikode|Calicut|673001|https://www.google.com/maps/place/Ganesh+Flower+Stall/data=!4m2!3m1!1s0x3ba659377a304c77:0xb6e24a4771341c7c?gl=IN&hl=en|https://plus.google.com/112392745840500649878/about?gl=in&hl=en||096 05 031892|||||
8|Aryan Florist|Convent Square, Canal Road|Alappuzha|688001|https://www.google.co.in/maps/search/aryan+florist+,Convent+Square,+Canal+Road/@13.0475255,80.2089348,11z/data=!3m1!4b1|http://yellowpages.sulekha.com/alleppey/aryan-florist-alappuzha-alleppey_contact-address||9813213619|||||4
9|New India Florist||alappuzha||https://www.google.co.in/maps/search/New+India+Florist+alappuzha/@12.8391275,80.216564,10z/data=!3m1!4b1|www.newindiaflorist.com||8238366333|8238366555||We provide same day & midnight Florist Delivery Services in Alappuzha, flowers is the best Gift that anyone would love, now send these Stylish Creative & Designer Flowers Arrangements,|https://www.facebook.com/NewIndiaFlorist|
10|Fragrant Lily|C.S.I Commercial Building, Baker junction , M.C RoadKottayam||||http://kottayamweddingflowers.com/|fragrantlillie@yahoo.com|91 481 2561449|9446302149||We create a diverse and memorable floral design which will honour the nature of the season. Our desire is to design the most spectacular array of flowers.||5
11|Orchid Decorators & Event Organisers|Palapparambil House, Parikkappilly Link Road, Manjummal|Cochin|683501||http://www.matrimonydirectory.com/sites/orchid/|orchid.decorations@gmail.com|9744041591|9744041591/9895018859||The Most Leading Team In The Wedding Decoration Industry Located In Cochin. We Are Well Versed In Organizing Your Marriage Function With Wedding Flowers And Colours Through The Handicrafts Of Our Expert Team.||5
12|Rosa Florists Floral Decors|CB-37, Saphalyam Complex, MG Road|Trivandrum||https://www.google.co.in/maps/place/Saphallyam+Shopping+Complex/@8.5025317,76.9505623,17z/data=!3m1!4b1!4m2!3m1!1s0x3b05bbb85ad0b1ed:0x3188d96b19a5988c|www.rosaflorist.in|e_robin2000@yahoo.com|0471-2335663|9387836107||We offer delivery of flower bouquets, basket along with cakes, chocolates, teddy’s toys and such other gifts to your relatives and friends all over kerala.||
13|Flower World|Bus Stop Junction Kalathipady|Kottayam|686010|https://www.google.co.in/maps/place/Flora+Airport+Hotel/@10.160948,76.390568,17z/data=!3m1!4b1!4m2!3m1!1s0x3b080623080fcde1:0x95bf41cfd352403a|http://www.quickerala.com/kottayam/kalathippady/flower-world/83949||9947253689|9562618111||||4
14|Raja Flower Stores|Kavala, Changanacherry|Kottayam|686101|https://www.google.co.in/maps/place/Changanacherry+Kavala/@9.446516,76.540461,17z/data=!3m1!4b1!4m2!3m1!1s0x3b06260ef41d64c5:0x635596d9a35e9681|http://www.justdial.com/Kottayam/raja-flower-stores-%3Cnear%3E-Changanacherry-Kottayam/9999PMULBLRSTD2091714_BZDET||0481 2421816||||https://www.facebook.com/pages/Just-Dial/210623000268|3
15|Siby Flower Stores|Cntrl .jn, M C Road, Changanacherry|Kottayam|686101|https://www.google.co.in/maps/search/siby+flower+stores+,+Changanacherry+,+kottayam/@9.446516,76.540461,17z|||0481 2420682|||||3
16|Parnasala Flowers|Cathedral Junction, Kanjirapally|Kottayam|686507|https://www.google.co.in/maps/preview?q=Parnasala+Flowers,+kottayam&ie=UTF-8&ei=EXI1VMydBcy78gXu8YLICQ&ved=0CAcQ_AUoAg|http://www.quickerala.com/kottayam/kanjirappally/parnasala-flowers/58130||9447159490|9447159490||||3
17|Chilanka Flower House|K K Road ,Ponkunnam|Kottayam|686506|https://www.google.co.in/maps/place/COFFEE+@+K.K+ROAD/@9.553174,76.789959,17z/data=!3m1!4b1!4m2!3m1!1s0x3b063679ecc61d0b:0x98092934023b9e4d|http://www.getit.in/kottayam/chilanka-flower-house/ponkunnam/k-k-road/3597969.html||94474 10412||||https://www.facebook.com/rajesh.chilankaflowerhouse?fref=ts|3
18|Flora Fancy Centre|Palai|Kottayam|686575|https://www.google.co.in/maps/place/Pala,+Kerala/@9.7162352,76.6878318,14z/data=!4m2!3m1!1s0x3b07cdceb06d5e9f:0xb33a8fbfd6cf2e34|http://city.webindia123.com/d-t/kerala/kottayam/flora-fancy-centre/2885/||9447568559|||||3
19|Sumam's Floral Expressions|Book Zone, Assissi Building, Market Road, Changanacherry|Kottayam|686039|||sumamscaria@hotmail.com||||Exquisite floral art for interiors, Bridal collections, eco-friendly floral ornamentation.|https://www.facebook.com/pages/Sumams-Floral-expressions/224573047636784?sk=info|5
20|Ever Shine|Aroor-Thoppumpady Rd, Thoppumpady Junction, Thoppumpady Kochi, Kerala 682005 India|Kochi|682005|https://www.google.co.in/maps/place/Ever+Shine/@9.933741,76.264628,15z/data=!4m2!3m1!1s0x0:0x667b03af2a6be6?sa=X&ei=qqM6VODBJo-gugTKu4DgCg&ved=0CAYQ5xg|||91 484 332 5995||||https://plus.google.com/102728449269378249634/about?hl=en|3.5
21|Lalith Flora|"Lalith Flora (Florist and Floriculturists)
Opp: St. Annes School, Pallimukku
Pettah, Trivandrum - 695024"|Trivandrum| 695024|https://www.google.com/maps/place/Lalith+Flora/@8.496887,76.932967,14z/data=!4m2!3m1!1s0x0:0xf4c7c4930aacdbec?hl=en-US|http://www.lalithflora.com/|lalithflora@yahoo.co.in|91 471 2743274|9037833200||With our base in Trivandrum since 1998, Lalith Flora has been delivering flower bouquets, posies and other such floral arrangements along with your choice of gifts like cakes, teddies and other gift articles to your loved ones, on the special occasions in their lives. Prompt service and excellent quality are things we deliver without you ordering for it.|https://www.facebook.com/pages/Lalith-Flora/505189819529950|5
